{
    "nats": {
      "address": "nats://off.bahasakita.co.id:4222"
    },
    "logging": {
      "output_paths": [
        "/media/dvtrdw/Data/Go/src/Ridwan/OSSBSS_api_dummy/log/endpoint/",
        "stdout"
      ],
      "error_output_paths": [
        "/media/dvtrdw/Data/Go/src/Ridwan/OSSBSS_api_dummy/log/endpoint/",
        "stderr"
      ]
    },
    "topic": {
      "rest_base_url": "app/plm",
      "nats_base_url": "app.plm",
      "environtment_status": "dev",
      "channel": {
        "post": [
          {
            "login": {
              "rest_path": "user/login/",
              "nats_path": "user.login"
            },
            "changepass": {
              "rest_path": "user/changepass/",
              "nats_path": "user.changepass"
            },
            "reset_pass": {
              "rest_path": "user/reset/",
              "nats_path": "user.reset"
            },
            "department_list": {
              "rest_path": "department/list/",
              "nats_path": "department.list"
            },
            "department_add": {
              "rest_path": "department/add/",
              "nats_path": "department.add"
            },
            "department_edit": {
                "rest_path": "department/edit/",
                "nats_path": "department.edit"
            },
            "department_delete": {
                "rest_path": "department/delete/",
                "nats_path": "department.delete"
            },
            "division_list": {
              "rest_path": "division/list/",
              "nats_path": "division.list"
            },
            "division_add": {
              "rest_path": "division/add/",
              "nats_path": "division.add"
            },
            "division_edit": {
                "rest_path": "division/edit/",
                "nats_path": "division.edit"
            },
            "division_delete": {
                "rest_path": "division/delete/",
                "nats_path": "division.delete"
            }, 
            "role_list": {
              "rest_path": "role/list/",
              "nats_path": "role.list"
            },
            "role_add": {
              "rest_path": "role/add/",
              "nats_path": "role.add"
            },
            "role_edit": {
                "rest_path": "role/edit/",
                "nats_path": "role.edit"
            },
            "role_delete": {
                "rest_path": "role/delete/",
                "nats_path": "role.delete"
            }, 
            "profile_detail": {
              "rest_path": "profile/detail/",
              "nats_path": "profile.detail"
            },
            "profile_edit": {
                "rest_path": "profile/edit/",
                "nats_path": "profile.edit"
            },
          "member_create": {
            "rest_path": "member/create/",
            "nats_path": "member.create"
          },
          "member_listall": {
            "rest_path": "member/listall/",
            "nats_path": "member.listall"
          },
          "member_listbydept": {
              "rest_path": "member/listbydept/",
              "nats_path": "member.listbydept"
          },
          "member_edit": {
              "rest_path": "member/edit/",
              "nats_path": "member.edit"
          }, 
          "member_deactive": {
            "rest_path": "member/deactivate/",
            "nats_path": "member.deactive"
          },
          "member_active": {
              "rest_path": "member/activate/",
              "nats_path": "member.active"
          }
          }
        ],
        "get": [
        ]
      }
    },
    "timeout": 8000,
    "port": 8080,
    "cert_dir": "/media/dvtrdw/Data/Go/src/Ridwan/notula_cloud_backend_service/cert/"
  }